400|BME415|1|Biomedical Engineering
400|BME413|1|Biomedical Engineering
400|BME411|1|Biomedical Engineering
400|EEE413|28|Electronics & Electrical Engineering
400|EEE415|1|Mechanical Engineering
400|EEE411|30|Electronics & Electrical Engineering
400|BME409|1|Biomedical Engineering
400|CSH407|1|Nutrition and Dietetics
400|BME407|1|Biomedical Engineering
500|FDT501|5|Food Technology#Food Science with Business
400|BME403|1|Biomedical Engineering
500|FDT503|3|Food Technology
400|BME405|1|Biomedical Engineering
500|FDT505|3|Food Technology
500|BTE507|1|Microbiology
500|FDT507|5|Food Technology#Food Science with Business
400|AMS325|3|Physics with Electronics
400|BME401|1|Biomedical Engineering
500|FDT509|6|Food Technology#Food Science with Business#Microbiology
500|BTE503|1|Microbiology
400|GEL281|2|Electronics & Electrical Engineering#Telecommunications Engineering
500|BTE505|1|Microbiology
500|BTE501|1|Microbiology
400|MKT303|6|Marketing
400|BDT401|2|Building Technology
400|MKT305|5|Marketing
300|BDT309|4|Building Technology
400|BDT405|3|Building Technology#Quantity Surveying
300|BDT307|4|Building Technology
400|BDT403|2|Building Technology
300|BDT305|4|Building Technology
400|BDT409|2|Building Technology
300|BDT303|4|Building Technology
100|ARC105|68|Architecture
400|BDT407|2|Building Technology
300|BDT301|4|Building Technology
100|ARC103|68|Architecture
500|FDT511|3|Food Technology
100|ARC101|68|Architecture
400|PMT401|9|Project Management Technology
400|MKT301|7|Marketing
500|PMT501|2|Project Management Technology
200|MEE202|1|Electronics & Electrical Engineering
400|BDT413|2|Building Technology
400|MEE201|180|Mechanical Engineering#Biomedical Engineering#Mechatronics#Telecommunications Engineering#Electronics & Electrical Engineering#Biotechnology#Computer Engineering
400|MKT403|12|Marketing#Human Resources Management#International Business
300|PHY311|4|Physics with Electronics
400|ARC411|12|Architecture
400|ARC413|11|Architecture
400|BDT411|3|Building Technology#Quantity Surveying
300|PHY317|4|Physics with Electronics
400|CEN201|84|Mechanical Engineering#Biomedical Engineering#Mechatronics#Electronics & Electrical Engineering#Computer Engineering
200|MEE208|1|Electronics & Electrical Engineering
300|MEE207|157|Mechanical Engineering#Biomedical Engineering#Mechatronics#Telecommunications Engineering#Electronics & Electrical Engineering#Computer Engineering#Building Technology
200|MEE206|1|Electronics & Electrical Engineering
400|MEE205|178|Mechanical Engineering#Electronics & Electrical Engineering#Biomedical Engineering#Mechatronics#Telecommunications Engineering#Computer Engineering
200|MEE204|1|Electronics & Electrical Engineering
300|MEE203|172|Computer Engineering#Biomedical Engineering#Mechatronics#Telecommunications Engineering#Electronics & Electrical Engineering#Mechanical Engineering
400|EEE305|99|Computer Engineering#Electronics & Electrical Engineering#Mechatronics#Telecommunications Engineering
400|EEE303|92|Computer Engineering#Electronics & Electrical Engineering#Biomedical Engineering#Telecommunications Engineering
400|PMT413|10|Project Management Technology#Transport Management and Logistcis
400|EEE309|78|Computer Engineering#Electronics & Electrical Engineering#Mechatronics#Telecommunications Engineering
400|FNB201|166|Human Resources Management#Finance and Banking#International Business#Economics#Marketing#Business Computing#Accounting#Mechanical Engineering
400|PMT411|10|Project Management Technology#Transport Management and Logistcis
400|EEE307|89|Computer Engineering#Electronics & Electrical Engineering#Telecommunications Engineering
400|ARC401|10|Architecture
500|PMT507|3|Project Management Technology#Transport Management and Logistcis
500|PMT505|2|Project Management Technology
400|ARC405|13|Architecture#Estate Management
500|PMT503|2|Project Management Technology
400|ARC403|10|Architecture
400|PMT405|10|Project Management Technology#Transport Management and Logistcis
400|ARC409|11|Architecture
400|FNB405|4|Finance and Banking
400|FNB403|6|Finance and Banking
400|EEE301|129|Computer Engineering#Electronics & Electrical Engineering#Mechatronics#Biomedical Engineering#Mechanical Engineering#Telecommunications Engineering
400|PMT409|10|Project Management Technology
400|FNB401|4|Finance and Banking
400|AMS413|1|Applied Mathematics with Statistics
400|AMS411|1|Applied Mathematics with Statistics
300|FNB307|35|Economics
400|FNB309|2|Finance and Banking
400|BIC409|9|Biochemistry
400|FNB409|3|Finance and Banking
300|CEN301|75|Computer Engineering#Electronics & Electrical Engineering#Telecommunications Engineering
400|BIC411|9|Biochemistry
400|BIC415|9|Biochemistry
400|CEN405|11|Computer Engineering
400|AMS419|1|Applied Mathematics with Statistics
400|CEN403|12|Computer Engineering
400|AMS417|1|Applied Mathematics with Statistics
400|CEN401|12|Computer Engineering
400|AMS415|1|Applied Mathematics with Statistics
400|AMS421|1|Applied Mathematics with Statistics
500|PHY207|10|Biotechnology#Food Technology#Physics with Electronics#Computer Science
300|SGF301|1|Surveying & Geoinformatics
500|PHY105|17|Physics with Electronics#Food Technology#Microbiology#Information Technology#Applied Mathematics with Statistics#Computer Science#Nutrition and Dietetics
300|SGF303|1|Surveying & Geoinformatics
400|PHY103|440|Mechanical Engineering#Building Technology#Architecture#Electronics & Electrical Engineering#Biomedical Engineering#Biochemistry#Microbiology#Biotechnology#Physics with Electronics#Surveying & Geoinformatics#Computer Science#Information Technology#Urban & Regional Planning#Quantity Surveying#Mechatronics#Computer Engineering#Telecommunications Engineering#Food Technology#Industrial Chemistry#Applied Mathematics with Statistics#Estate Management#Nutrition and Dietetics
300|SGF305|1|Surveying & Geoinformatics
300|PHY101|450|Computer Science#Electronics & Electrical Engineering#Physics with Electronics#Mechanical Engineering#Building Technology#Architecture#Biomedical Engineering#Biochemistry#Microbiology#Biotechnology#Surveying & Geoinformatics#Information Technology#Urban & Regional Planning#Quantity Surveying#Mechatronics#Computer Engineering#Telecommunications Engineering#Food Technology#Industrial Chemistry#Applied Mathematics with Statistics#Estate Management#Nutrition and Dietetics
300|SGF307|1|Surveying & Geoinformatics
300|SGF309|1|Surveying & Geoinformatics
400|PHY203|1|Physics with Electronics
400|PHY109|2|Human Resources Management#Accounting
400|BIC401|9|Biochemistry
300|ARC209|54|Architecture
300|PHY309|5|Physics with Electronics
400|PHY403|7|Physics with Electronics
400|BIC407|10|Biochemistry
300|PHY307|6|Physics with Electronics
300|PHY305|4|Physics with Electronics
300|ARC203|56|Architecture
400|PHY407|7|Physics with Electronics
300|PHY303|4|Physics with Electronics
200|ARC201|53|Architecture
400|CEN411|9|Computer Engineering
400|AMS425|1|Applied Mathematics with Statistics
200|ARC207|53|Architecture
400|AMS427|1|Applied Mathematics with Statistics
200|ARC205|53|Architecture
400|PHY409|7|Physics with Electronics
400|ACC101|164|Accounting#Project Management Technology#Marketing#International Business#Human Resources Management#Economics#Business Computing#Finance and Banking#Electronics & Electrical Engineering
400|ACC203|54|Accounting#Finance and Banking
400|ACC201|73|Finance and Banking#Accounting#Estate Management#Project Management Technology#Economics
400|PHY211|46|Computer Science#Surveying & Geoinformatics#Information Technology#Physics with Electronics
400|PHY413|7|Physics with Electronics
400|BIO103|140|Computer Engineering#Physics with Electronics#Biochemistry#Microbiology#Biotechnology#Computer Science#Information Technology#Food Technology#Industrial Chemistry#Mechanical Engineering#Applied Mathematics with Statistics#Nutrition and Dietetics
400|PHY411|7|Physics with Electronics
400|BIO101|158|Information Technology#Computer Science#Computer Engineering#Electronics & Electrical Engineering#Project Management Technology#Biochemistry#Microbiology#Biotechnology#Physics with Electronics#Food Technology#Industrial Chemistry#Urban & Regional Planning#Biomedical Engineering#Business Computing#Applied Mathematics with Statistics#Mechanical Engineering#Nutrition and Dietetics
500|FSB507|2|Food Science with Business
500|FSB505|2|Food Science with Business
500|FSB503|2|Food Science with Business
500|FSB501|6|Food Technology#Food Science with Business#Microbiology
400|PHY419|7|Physics with Electronics
200|EEE202|1|Electronics & Electrical Engineering
400|EEE407|40|Electronics & Electrical Engineering#Computer Engineering#Telecommunications Engineering
400|EEE201|193|Mechanical Engineering#Surveying & Geoinformatics#Biomedical Engineering#Mechatronics#Telecommunications Engineering#Electronics & Electrical Engineering#Computer Engineering#Building Technology
400|EEE405|44|Electronics & Electrical Engineering#Computer Engineering#Telecommunications Engineering
400|EEE403|32|Electronics & Electrical Engineering
400|EEE401|45|Electronics & Electrical Engineering#Computer Engineering#Mechatronics#Telecommunications Engineering
400|EEE409|30|Electronics & Electrical Engineering
400|PHY425|6|Physics with Electronics
300|AMS305|4|Physics with Electronics
300|FNB301|2|Finance and Banking
400|EEE207|171|Mechanical Engineering#Mechatronics#Biomedical Engineering#Telecommunications Engineering#Electronics & Electrical Engineering#Computer Engineering
400|EEE205|175|Mechanical Engineering#Biomedical Engineering#Mechatronics#Telecommunications Engineering#Electronics & Electrical Engineering#Computer Engineering
200|EEE206|1|Electronics & Electrical Engineering
300|FNB305|1|Finance and Banking
400|EEE203|183|Computer Engineering#Mechanical Engineering#Biomedical Engineering#Mechatronics#Telecommunications Engineering#Electronics & Electrical Engineering
200|EEE204|1|Electronics & Electrical Engineering
400|FNB303|129|Accounting#International Business#Human Resources Management#Marketing#Project Management Technology#Economics#Finance and Banking#Business Computing#Transport Management and Logistcis
500|ECO313|46|Economics
400|MIC401|10|Microbiology
500|ECO311|1|Economics
400|ECO317|34|Economics#Finance and Banking
400|NUD407|1|Nutrition and Dietetics
400|NUD405|1|Nutrition and Dietetics
400|NUD403|1|Nutrition and Dietetics
400|NUD401|1|Nutrition and Dietetics
400|MIC409|10|Microbiology
400|MIC407|10|Microbiology
400|MIC405|10|Microbiology
400|MIC403|10|Microbiology
500|TML501|1|Transport Management and Logistcis
500|TML503|1|Transport Management and Logistcis
400|TML409|1|Transport Management and Logistcis
500|TML505|1|Transport Management and Logistcis
500|TML509|1|Transport Management and Logistcis
400|TML401|1|Transport Management and Logistcis
200|GES202|1|Electronics & Electrical Engineering
300|EST301|6|Estate Management
400|GES201|21|Computer Science#International Business#Human Resources Management#Accounting#Industrial Chemistry#Economics#Electronics & Electrical Engineering#Mechanical Engineering#Telecommunications Engineering#Computer Engineering
300|EST307|8|Estate Management
300|PHY111|145|Project Management Technology#International Business#Economics#Human Resources Management#Marketing#Accounting#Business Computing#Finance and Banking
300|EST303|8|Estate Management
300|EST305|8|Estate Management
400|BIC421|1|Biochemistry
400|MIC411|10|Microbiology
400|MIC413|10|Microbiology
500|ITP405|38|Information Technology#Project Management Technology#Transport Management and Logistcis
500|ITP403|22|Information Technology
400|BIC425|8|Biochemistry
500|ITP401|71|Computer Science#Information Technology#Business Computing
400|BIC423|8|Biochemistry
400|GES205|53|Architecture
400|NUD411|1|Nutrition and Dietetics
400|MIC307|9|Microbiology
400|ECO411|3|Economics
400|MIC305|10|Microbiology
400|ECO413|31|Economics
400|GES313|1|Computer Engineering
400|ECO415|23|Economics
400|ECN211|217|Information Technology#Mechanical Engineering#Biomedical Engineering#Mechatronics#Telecommunications Engineering#Electronics & Electrical Engineering#Biotechnology#Computer Engineering#Computer Science#Estate Management#Industrial Chemistry#Nutrition and Dietetics#Food Technology
400|BIC309|9|Biochemistry
400|ECN315|1|Finance and Banking
400|ECO211|52|Economics
300|BME301|7|Biomedical Engineering
300|BIC311|8|Biochemistry
400|MIC303|14|Microbiology#Biotechnology
300|BME303|6|Biomedical Engineering
400|MIC301|10|Microbiology
300|BME305|6|Biomedical Engineering
300|AMS221|97|Computer Science#Information Technology#Industrial Chemistry#Biochemistry#Microbiology#Physics with Electronics#Food Technology#Nutrition and Dietetics
300|BME309|6|Biomedical Engineering
300|CHM309|8|Industrial Chemistry
300|BME307|6|Biomedical Engineering
300|CHM305|8|Industrial Chemistry
300|CHM307|6|Industrial Chemistry
400|CHM405|4|Industrial Chemistry
400|CHM407|3|Industrial Chemistry
400|ECN209|7|Human Resources Management#Marketing#Business Computing#International Business
400|CHM409|4|Industrial Chemistry
400|ECN207|3|Marketing#Accounting#Human Resources Management
400|MKT401|27|Marketing#International Business
400|BIC307|12|Biochemistry
300|BIC305|10|Biochemistry
300|BIC303|10|Biochemistry
200|BIC201|17|Biochemistry
400|CHM401|3|Industrial Chemistry
400|BIC301|12|Biochemistry#Microbiology
400|CHM403|3|Industrial Chemistry
300|CHM301|7|Industrial Chemistry
300|CHM303|7|Industrial Chemistry
500|AMS205|70|Computer Science#Estate Management#Biomedical Engineering#Mechanical Engineering#Information Technology#Electronics & Electrical Engineering#Telecommunications Engineering#Building Technology#Computer Engineering
400|EST403|2|Estate Management
400|EST405|2|Estate Management
400|GES101|589|Project Management Technology#Electronics & Electrical Engineering#International Business#Mechanical Engineering#Building Technology#Marketing#Architecture#Economics#Biomedical Engineering#Human Resources Management#Accounting#Biochemistry#Microbiology#Biotechnology#Physics with Electronics#Surveying & Geoinformatics#Computer Science#Business Computing#Information Technology#Urban & Regional Planning#Quantity Surveying#Mechatronics#Computer Engineering#Telecommunications Engineering#Food Technology#Industrial Chemistry#Finance and Banking#Applied Mathematics with Statistics#Estate Management#Nutrition and Dietetics
400|MEE101|360|Mechanical Engineering#Electronics & Electrical Engineering#Building Technology#Biomedical Engineering#Biochemistry#Microbiology#Biotechnology#Surveying & Geoinformatics#Computer Science#Information Technology#Quantity Surveying#Mechatronics#Computer Engineering#Telecommunications Engineering#Industrial Chemistry#Food Technology
400|EST201|17|Estate Management#Architecture#Urban & Regional Planning#Building Technology#Quantity Surveying
400|EST407|2|Estate Management
200|EST203|4|Estate Management
300|GES103|464|Project Management Technology#Mechanical Engineering#Building Technology#Architecture#Electronics & Electrical Engineering#Biomedical Engineering#Marketing#Biochemistry#Microbiology#Biotechnology#Surveying & Geoinformatics#Computer Science#Information Technology#Urban & Regional Planning#Quantity Surveying#Mechatronics#Accounting#Computer Engineering#Telecommunications Engineering#Food Technology#Industrial Chemistry#Finance and Banking#International Business#Human Resources Management#Applied Mathematics with Statistics#Estate Management#Nutrition and Dietetics
500|ITP511|14|Information Technology
500|HRM401|16|Human Resources Management#International Business
500|HRM403|18|Human Resources Management#Marketing#International Business
400|HRM405|19|Human Resources Management
400|AMS105|179|Accounting#Project Management Technology#International Business#Human Resources Management#Marketing#Economics#Business Computing
400|CHM411|3|Industrial Chemistry
400|QTS303|25|Architecture#Estate Management#Building Technology#Quantity Surveying
300|QTS301|1|Quantity Surveying
200|AMS101|483|Computer Science#Mechatronics#Architecture#Telecommunications Engineering#Electronics & Electrical Engineering#Mechanical Engineering#Building Technology#Biomedical Engineering#Biochemistry#Microbiology#Biotechnology#Physics with Electronics#Surveying & Geoinformatics#Information Technology#Urban & Regional Planning#Quantity Surveying#Computer Engineering#Food Technology#Industrial Chemistry#Applied Mathematics with Statistics#Estate Management#Nutrition and Dietetics
400|QTS405|1|Quantity Surveying
300|QTS307|4|Building Technology#Quantity Surveying
200|EST205|4|Estate Management
400|QTS403|1|Quantity Surveying
300|QTS305|1|Quantity Surveying
200|EST207|11|Estate Management#Urban & Regional Planning
400|QTS401|1|Quantity Surveying
300|EST209|5|Estate Management#Architecture
500|AMS201|43|Biochemistry#Project Management Technology#Biotechnology#Industrial Chemistry#Food Technology#Food Science with Business
400|GES301|122|Accounting#International Business#Human Resources Management#Marketing#Economics#Finance and Banking#Business Computing
400|EST401|1|Estate Management
500|AMS203|42|Computer Science#Information Technology
500|ECO309|107|Accounting#Economics#Finance and Banking
500|ECO403|42|Economics
500|ECO307|41|Economics
500|ITP509|13|Information Technology
100|BUS101|133|Marketing#Economics#Human Resources Management#International Business#Accounting#Business Computing#Project Management Technology
500|ECO401|49|Economics
500|ITP503|14|Information Technology
300|ECO301|36|Economics
500|ITP501|13|Computer Science#Information Technology
400|ECO409|42|Economics
400|ECO305|43|Economics#Project Management Technology
500|ECO407|43|Economics
400|ECO303|39|Economics
500|ITP505|12|Information Technology
200|ECO103|29|Economics#Human Resources Management#Finance and Banking#Estate Management#International Business#Accounting#Marketing
300|ECO101|199|Estate Management#Surveying & Geoinformatics#Project Management Technology#Architecture#Building Technology#Marketing#Economics#Human Resources Management#International Business#Accounting#Business Computing#Urban & Regional Planning#Quantity Surveying#Finance and Banking#Electronics & Electrical Engineering
400|ECO207|179|Human Resources Management#Finance and Banking#Accounting#Project Management Technology#Marketing#International Business#Economics#Business Computing#Mechanical Engineering
100|GES107|132|Marketing#Economics#Human Resources Management#International Business#Accounting#Business Computing#Project Management Technology
500|ECO205|72|Project Management Technology#Economics#Electronics & Electrical Engineering#Transport Management and Logistcis
100|GES105|133|Marketing#Economics#Human Resources Management#International Business#Accounting#Business Computing#Project Management Technology
400|ECO203|174|Human Resources Management#Finance and Banking#International Business#Economics#Business Computing#Accounting#Marketing#Mechanical Engineering
200|ECO201|180|Human Resources Management#Accounting#Finance and Banking#International Business#Estate Management#Economics#Business Computing#Marketing#Mechanical Engineering
400|GES311|354|Computer Science#Information Technology#Computer Engineering#Accounting#Electronics & Electrical Engineering#Mechatronics#Mechanical Engineering#Industrial Chemistry#Biochemistry#Economics#Microbiology#Human Resources Management#Biomedical Engineering#Telecommunications Engineering#International Business#Physics with Electronics#Finance and Banking#Marketing#Food Technology#Project Management Technology#Business Computing
200|URP209|66|Estate Management#Surveying & Geoinformatics#Architecture#Urban & Regional Planning#Building Technology
200|URP201|4|Urban & Regional Planning
200|URP203|3|Urban & Regional Planning
200|URP205|3|Urban & Regional Planning
200|URP207|4|Urban & Regional Planning
400|URP401|2|Urban & Regional Planning
300|FDT301|8|Biotechnology#Food Technology
400|URP403|4|Estate Management#Urban & Regional Planning
300|URP211|3|Urban & Regional Planning
400|URP405|2|Urban & Regional Planning
400|URP409|2|Urban & Regional Planning
300|FDT309|4|Food Technology#Nutrition and Dietetics
300|CHM315|8|Industrial Chemistry
400|FDT307|15|Microbiology#Food Technology#Nutrition and Dietetics
400|MIC201|49|Biochemistry#Microbiology#Industrial Chemistry#Food Technology#Nutrition and Dietetics
300|FDT305|3|Food Technology
300|CHM311|8|Industrial Chemistry
400|MIC203|41|Biochemistry#Microbiology#Industrial Chemistry#Food Technology#Nutrition and Dietetics
400|FDT303|4|Food Technology
400|URP413|2|Urban & Regional Planning
400|URP411|2|Urban & Regional Planning
300|BTE203|1|Biotechnology
300|CHM317|7|Industrial Chemistry
400|URP415|2|Urban & Regional Planning
400|CHM201|40|Biochemistry#Microbiology#Industrial Chemistry#Food Technology#Nutrition and Dietetics
400|GES411|12|Industrial Chemistry#Physics with Electronics#Applied Mathematics with Statistics
400|GES401|38|Architecture#Estate Management#Biochemistry#Microbiology#Building Technology#Urban & Regional Planning#Quantity Surveying#Human Resources Management
500|GES403|139|Economics#Accounting#Marketing#International Business#Finance and Banking#Human Resources Management#Business Computing#Project Management Technology#Transport Management and Logistcis
400|ECN101|8|International Business#Project Management Technology#Marketing#Human Resources Management
200|CHM207|19|Biochemistry#Industrial Chemistry
400|HRM303|19|Human Resources Management
400|HRM301|43|International Business#Human Resources Management#Project Management Technology#Business Computing
400|HRM307|16|Human Resources Management
400|HRM305|20|Human Resources Management
300|URP309|2|Urban & Regional Planning
400|MEE381|1|Mechanical Engineering
300|URP305|3|Urban & Regional Planning
300|URP307|2|Urban & Regional Planning
300|URP301|3|Urban & Regional Planning
300|URP303|2|Urban & Regional Planning
500|ITP301|46|Computer Science#Information Technology
500|ITP303|51|Computer Science#Information Technology
400|BUS307|31|International Business#Marketing#Business Computing
400|BUS203|128|Human Resources Management#Finance and Banking#Project Management Technology#International Business#Accounting#Marketing#Mechanical Engineering#Electronics & Electrical Engineering
400|BUS305|28|International Business
400|BUS201|169|Human Resources Management#Finance and Banking#Project Management Technology#International Business#Economics#Business Computing#Accounting#Marketing#Mechanical Engineering#Electronics & Electrical Engineering
300|FDT201|5|Biotechnology#Food Technology
400|FDT203|40|Biochemistry#Microbiology#Biotechnology#Food Technology#Nutrition and Dietetics
300|NUD311|2|Nutrition and Dietetics
400|BUS303|33|International Business#Finance and Banking
400|BUS301|118|Accounting#International Business#Human Resources Management#Marketing#Finance and Banking#Project Management Technology#Business Computing#Transport Management and Logistcis
300|URP315|2|Urban & Regional Planning
300|URP313|2|Urban & Regional Planning
400|URP311|8|Estate Management#Quantity Surveying#Urban & Regional Planning
300|CSC101|594|Computer Science#Mechanical Engineering#Project Management Technology#Computer Engineering#International Business#Human Resources Management#Physics with Electronics#Building Technology#Marketing#Architecture#Electronics & Electrical Engineering#Economics#Biomedical Engineering#Accounting#Biochemistry#Microbiology#Biotechnology#Surveying & Geoinformatics#Business Computing#Information Technology#Urban & Regional Planning#Quantity Surveying#Mechatronics#Telecommunications Engineering#Food Technology#Industrial Chemistry#Estate Management#Applied Mathematics with Statistics#Nutrition and Dietetics
500|CSC203|46|Computer Science#Information Technology#Project Management Technology#Electronics & Electrical Engineering
400|CSC201|189|Surveying & Geoinformatics#Biochemistry#Telecommunications Engineering#Electronics & Electrical Engineering#Microbiology#Information Technology#Biotechnology#Computer Engineering#Business Computing#Computer Science#Industrial Chemistry#Physics with Electronics#Food Technology#Nutrition and Dietetics
400|CSC207|40|Computer Science#Information Technology
500|CSC205|46|Computer Science#Information Technology#Business Computing
500|CSC515|39|Computer Science
500|CSC513|36|Computer Science#Information Technology
500|CSC511|39|Computer Science
400|MCT403|2|Mechatronics
400|MCT405|1|Mechatronics
400|MCT407|2|Mechatronics
400|HRM201|88|Human Resources Management#International Business#Economics#Marketing#Business Computing#Finance and Banking#Accounting#Mechanical Engineering
400|MCT409|2|Mechatronics
400|HRM202|1|Human Resources Management
400|MCT401|2|Mechatronics
500|CSC505|41|Computer Science
200|NUD203|1|Nutrition and Dietetics
500|CSC501|54|Computer Science#Information Technology
500|CSC507|42|Computer Science#Information Technology
200|NUD201|1|Nutrition and Dietetics
500|CSC509|41|Computer Science
300|BTE303|6|Biotechnology
300|BTE301|9|Biotechnology#Food Technology
400|BTE307|7|Biotechnology#Microbiology
500|BTE409|3|Microbiology
300|BTE305|5|Biotechnology
400|BTE407|2|Microbiology
400|BTE405|2|Microbiology
400|EEE381|1|Computer Engineering
300|BTE309|4|Biotechnology
400|BTE403|2|Microbiology
400|BTE401|2|Microbiology
300|PMT205|11|Project Management Technology#Electronics & Electrical Engineering
300|MCT313|6|Mechatronics
400|FSB405|3|Food Science with Business
400|MEE405|13|Mechanical Engineering
400|FSB407|3|Food Science with Business
400|MEE407|12|Mechanical Engineering
400|FSB401|3|Food Science with Business
400|MEE401|15|Mechanical Engineering
400|FSB403|3|Food Science with Business
400|MEE403|15|Mechanical Engineering
400|BIO205|12|Microbiology
300|BIO203|15|Microbiology
400|BIO201|39|Biochemistry#Microbiology#Industrial Chemistry
400|BIO405|10|Microbiology
200|QTS201|1|Building Technology
300|BIO207|15|Microbiology
400|MEE409|12|Mechanical Engineering
300|SGF209|72|Estate Management#Architecture#Surveying & Geoinformatics#Urban & Regional Planning#Building Technology
200|SGF203|7|Surveying & Geoinformatics
200|SGF201|7|Surveying & Geoinformatics
200|SGF207|6|Surveying & Geoinformatics
200|SGF205|7|Surveying & Geoinformatics
300|NUD307|2|Nutrition and Dietetics
300|NUD309|2|Nutrition and Dietetics
400|NUD303|3|Nutrition and Dietetics
300|NUD305|2|Nutrition and Dietetics
300|NUD301|2|Nutrition and Dietetics
400|PMT305|3|Project Management Technology
400|PMT307|4|Project Management Technology
400|TCE411|2|Telecommunications Engineering
500|FDT411|3|Food Technology
500|FDT405|6|Food Science with Business#Food Technology
500|FDT403|3|Food Technology
500|FDT409|7|Nutrition and Dietetics#Food Science with Business#Food Technology
400|BUS405|6|Business Computing
500|FDT407|3|Food Technology
400|BUS407|54|Marketing#International Business#Human Resources Management#Business Computing
400|TCE403|2|Telecommunications Engineering
400|BUS401|92|Accounting#Marketing#International Business#Finance and Banking#Human Resources Management#Business Computing
400|TCE405|1|Telecommunications Engineering
400|BUS403|33|Marketing#International Business#Human Resources Management#Business Computing
400|FSC201|1|Biochemistry
400|MEE303|36|Mechatronics#Mechanical Engineering
400|MEE305|34|Mechanical Engineering#Mechatronics
400|MEE307|38|Mechatronics#Mechanical Engineering
400|URP511|10|Architecture
400|MEE309|36|Mechanical Engineering#Mechatronics
300|BDT315|4|Building Technology
300|BDT313|12|Estate Management#Building Technology
300|BDT311|8|Estate Management#Building Technology
500|FDT401|4|Food Technology
400|MEE301|37|Mechanical Engineering
400|ACC401|43|Accounting
400|ACC403|41|Accounting
400|BIO301|9|Microbiology
400|BUS413|18|Human Resources Management#Marketing#Business Computing
400|ACC409|43|Accounting
400|BUS411|21|International Business
400|ACC301|56|Accounting
400|ACC303|55|Accounting
400|ACC405|43|Accounting
400|PMT303|7|Project Management Technology#Transport Management and Logistcis
400|ACC407|42|Accounting
400|PMT301|6|Project Management Technology
300|BDT205|1|Quantity Surveying
500|CSC401|43|Computer Science
400|ARC301|27|Architecture
400|BDT201|15|Estate Management#Architecture#Urban & Regional Planning#Building Technology#Quantity Surveying
400|MEE411|45|Electronics & Electrical Engineering#Computer Engineering#Mechanical Engineering#Mechatronics#Telecommunications Engineering
500|CSC403|45|Computer Science#Information Technology
400|ARC303|27|Architecture
300|BDT203|2|Building Technology#Quantity Surveying
300|MEE313|29|Mechanical Engineering
300|ARC305|25|Architecture
500|CSC405|47|Computer Science#Information Technology
400|CSC305|37|Computer Science#Information Technology
400|MEE311|104|Computer Engineering#Electronics & Electrical Engineering#Mechatronics#Biomedical Engineering#Mechanical Engineering#Telecommunications Engineering
300|ARC307|26|Architecture
500|CSC407|67|Computer Science#Information Technology
500|CSC307|59|Computer Science#Information Technology#Business Computing
500|CSC409|79|Computer Science#Information Technology
400|MEE413|13|Mechanical Engineering
400|ARC309|28|Architecture
500|CSC301|63|Computer Science#Information Technology#Business Computing
500|CSC303|68|Computer Science#Information Technology
400|ACC411|42|Accounting
300|ARC313|26|Architecture
400|CHM109|4|International Business#Economics
400|TCE401|2|Telecommunications Engineering
500|CSC411|75|Computer Science#Information Technology#Business Computing
400|ARC311|27|Architecture
400|CHM107|2|Human Resources Management
400|ARC317|28|Architecture
300|ARC315|26|Architecture
500|GES501|60|Computer Science#Information Technology#Food Technology#Food Science with Business#Microbiology
500|CSC311|61|Computer Science#Information Technology
500|FDT417|11|Nutrition and Dietetics#Microbiology#Food Science with Business#Food Technology
500|FDT413|5|Nutrition and Dietetics#Food Technology
500|FDT415|9|Nutrition and Dietetics#Microbiology#Food Science with Business#Food Technology
400|BIO320|9|Microbiology
300|CHM101|440|Computer Science#Mechanical Engineering#Building Technology#Architecture#Electronics & Electrical Engineering#Biomedical Engineering#Biochemistry#Microbiology#Biotechnology#Physics with Electronics#Surveying & Geoinformatics#Information Technology#Urban & Regional Planning#Quantity Surveying#Mechatronics#Computer Engineering#Telecommunications Engineering#Food Technology#Industrial Chemistry#Applied Mathematics with Statistics#Estate Management#Nutrition and Dietetics
500|FDT515|6|Food Technology#Food Science with Business#Microbiology
200|CHM105|135|Marketing#Economics#Human Resources Management#International Business#Accounting#Business Computing#Project Management Technology
300|CHM103|442|Physics with Electronics#Mechanical Engineering#Building Technology#Architecture#Electronics & Electrical Engineering#Biomedical Engineering#Biochemistry#Microbiology#Biotechnology#Surveying & Geoinformatics#Computer Science#Information Technology#Urban & Regional Planning#Quantity Surveying#Mechatronics#Computer Engineering#Telecommunications Engineering#Food Technology#Industrial Chemistry#Applied Mathematics with Statistics#Estate Management#Nutrition and Dietetics
-->END<--